{
  "code": "0",
  "result": {
    "page": 1,
    "page_size": 10,
    "total": 25,
    "page_count": 3,
    "item_list|7": [
      {
        "id|+1": 1,
        "role_name": /(管理人员)|(客服专员)|(财务专员)|(市场专员)|(人力专员)|(研发)|(测试)|(系统管理员)/,
        "status|0-1": 1,
        "authorize_user_name": "@cname",
        "authorize_time": 1617047863198,
        "create_time": 1585511863198,
        "menus": [
          "/home",
          "/ui/buttons",
          "/ui/modals",
          "/ui/loadings",
          "/ui/notification",
          "/ui/messages",
          "/ui/tabs",
          "/ui/gallery",
          "/ui/carousel",
          "/ui"
        ]
      }
    ]
  }
}
